count-ones/wave.vcd
$date
	Sat Nov 29 11:32:38 2025
$end
$version
	Icarus Verilog
$end
$timescale
	1ps
$end
$scope module count_ones $end
$var wire 1 ! clk $end
$var wire 8 " in [7:0] $end
$var wire 1 # rst $end
$var parameter 32 $ WIDTH $end
$var reg 6 % counter [5:0] $end
$var reg 4 & out [3:0] $end
$var integer 32 ' i [31:0] $end
$upscope $end
$enddefinitions $end
$comment Show the parameter values. $end
$dumpall
b1000 $
$end
#0
$dumpvars
b1000 '
b0 &
b0 %
1#
bz "
1!
$end
#3000
0!
#5000
0#
#7000
b1000 '
b0 "
#10000
1!
#13000
0!
#14000
b1 %
b1000 '
b1 "
#20000
b1 &
1!
#23000
0!
#24000
b1000 '
b1 %
b10 "
#30000
1!
#33000
0!
#34000
b1000 '
b10 %
b11 "
#40000
b10 &
1!
#43000
0!
#44000
b1000 '
b1 %
b100 "
#50000
b1 &
1!
#53000
0!
#54000
b1000 '
b10 %
b101 "
#60000
b10 &
1!
#63000
0!
#64000
b1000 '
b10 %
b110 "
#70000
1!
#73000
0!
#74000
b1000 '
b11 %
b111 "
#80000
b11 &
1!
#83000
0!
#84000
b1000 '
b1 %
b1000 "
#90000
b1 &
1!
#93000
0!
#94000
b1000 '
b10 %
b1001 "
#100000
b10 &
1!
#103000
0!
#104000
b1000 '
b10 %
b1010 "
#110000
1!
#113000
0!
#114000
b1000 '
b11 %
b1011 "
#120000
b11 &
1!
#123000
0!
#124000
b1000 '
b10 %
b1100 "
#130000
b10 &
1!
#133000
0!
#134000
b1000 '
b11 %
b1101 "
#140000
b11 &
1!
#143000
0!
#144000
b1000 '
b11 %
b1110 "
#150000
1!
#153000
0!
#154000
b1000 '
b100 %
b1111 "
#160000
b100 &
1!
#163000
0!
#164000
b1000 '
b1 %
b10000 "
#170000
b1 &
1!
#173000
0!
#174000
b1000 '
b10 %
b10001 "
#180000
b10 &
1!
#183000
0!
#184000
b1000 '
b10 %
b10010 "
#190000
1!
#193000
0!
#194000
b1000 '
b11 %
b10011 "
#200000
b11 &
1!
#203000
0!
#204000
b1000 '
b10 %
b10100 "
#210000
b10 &
1!
#213000
0!
#214000
b1000 '
b11 %
b10101 "
#220000
b11 &
1!
#223000
0!
#224000
b1000 '
b11 %
b10110 "
#230000
1!
#233000
0!
#234000
b1000 '
b100 %
b10111 "
#240000
b100 &
1!
#243000
0!
#244000
b1000 '
b10 %
b11000 "
#250000
b10 &
1!
#253000
0!
#254000
b1000 '
b11 %
b11001 "
#260000
b11 &
1!
#263000
0!
#264000
b1000 '
b11 %
b11010 "
#270000
1!
#273000
0!
#274000
b1000 '
b100 %
b11011 "
#280000
b100 &
1!
#283000
0!
#284000
b1000 '
b11 %
b11100 "
#290000
b11 &
1!
#293000
0!
#294000
b1000 '
b100 %
b11101 "
#300000
b100 &
1!
#303000
0!
#304000
b1000 '
b100 %
b11110 "
#310000
1!
#313000
0!
#314000
b1000 '
b101 %
b11111 "
#320000
b101 &
1!
#323000
0!
#324000
b1000 '
b1 %
b100000 "
#330000
b1 &
1!
#333000
0!
#334000
b1000 '
b10 %
b100001 "
#340000
b10 &
1!
#343000
0!
#344000
b1000 '
b10 %
b100010 "
#350000
1!
#353000
0!
#354000
b1000 '
b11 %
b100011 "
#360000
b11 &
1!
#363000
0!
#364000
b1000 '
b10 %
b100100 "
#370000
b10 &
1!
#373000
0!
#374000
b1000 '
b11 %
b100101 "
#380000
b11 &
1!
#383000
0!
#384000
b1000 '
b11 %
b100110 "
#390000
1!
#393000
0!
#394000
b1000 '
b100 %
b100111 "
#400000
b100 &
1!
#403000
0!
#404000
b1000 '
b10 %
b101000 "
#410000
b10 &
1!
#413000
0!
#414000
b1000 '
b11 %
b101001 "
#420000
b11 &
1!
#423000
0!
#424000
b1000 '
b11 %
b101010 "
#430000
1!
#433000
0!
#434000
b1000 '
b100 %
b101011 "
#440000
b100 &
1!
#443000
0!
#444000
b1000 '
b11 %
b101100 "
#450000
b11 &
1!
#453000
0!
#454000
b1000 '
b100 %
b101101 "
#460000
b100 &
1!
#463000
0!
#464000
b1000 '
b100 %
b101110 "
#470000
1!
#473000
0!
#474000
b1000 '
b101 %
b101111 "
#480000
b101 &
1!
#483000
0!
#484000
b1000 '
b10 %
b110000 "
#490000
b10 &
1!
#493000
0!
#494000
b1000 '
b11 %
b110001 "
#500000
b11 &
1!
#503000
0!
#504000
b1000 '
b11 %
b110010 "
#510000
1!
#513000
0!
#514000
b1000 '
b100 %
b110011 "
#520000
b100 &
1!
#523000
0!
#524000
b1000 '
b11 %
b110100 "
#530000
b11 &
1!
#533000
0!
#534000
b1000 '
b100 %
b110101 "
#540000
b100 &
1!
#543000
0!
#544000
b1000 '
b100 %
b110110 "
#550000
1!
#553000
0!
#554000
b1000 '
b101 %
b110111 "
#560000
b101 &
1!
#563000
0!
#564000
b1000 '
b11 %
b111000 "
#570000
b11 &
1!
#573000
0!
#574000
b1000 '
b100 %
b111001 "
#580000
b100 &
1!
#583000
0!
#584000
b1000 '
b100 %
b111010 "
#590000
1!
#593000
0!
#594000
b1000 '
b101 %
b111011 "
#600000
b101 &
1!
#603000
0!
#604000
b1000 '
b100 %
b111100 "
#610000
b100 &
1!
#613000
0!
#614000
b1000 '
b101 %
b111101 "
#620000
b101 &
1!
#623000
0!
#624000
b1000 '
b101 %
b111110 "
#630000
1!
#633000
0!
#634000
b1000 '
b110 %
b111111 "
#640000
b110 &
1!
#643000
0!
#644000
b1000 '
b1 %
b1000000 "
#650000
b1 &
1!
#653000
0!
#654000
b1000 '
b10 %
b1000001 "
#660000
b10 &
1!
#663000
0!
#664000
b1000 '
b10 %
b1000010 "
#670000
1!
#673000
0!
#674000
b1000 '
b11 %
b1000011 "
#680000
b11 &
1!
#683000
0!
#684000
b1000 '
b10 %
b1000100 "
#690000
b10 &
1!
#693000
0!
#694000
b1000 '
b11 %
b1000101 "
#700000
b11 &
1!
#703000
0!
#704000
b1000 '
b11 %
b1000110 "
#710000
1!
#713000
0!
#714000
b1000 '
b100 %
b1000111 "
#720000
b100 &
1!
#723000
0!
#724000
b1000 '
b10 %
b1001000 "
#730000
b10 &
1!
#733000
0!
#734000
b1000 '
b11 %
b1001001 "
#740000
b11 &
1!
#743000
0!
#744000
b1000 '
b11 %
b1001010 "
#750000
1!
#753000
0!
#754000
b1000 '
b100 %
b1001011 "
#760000
b100 &
1!
#763000
0!
#764000
b1000 '
b11 %
b1001100 "
#770000
b11 &
1!
#773000
0!
#774000
b1000 '
b100 %
b1001101 "
#780000
b100 &
1!
#783000
0!
#784000
b1000 '
b100 %
b1001110 "
#790000
1!
#793000
0!
#794000
b1000 '
b101 %
b1001111 "
#800000
b101 &
1!
#803000
0!
#804000
b1000 '
b10 %
b1010000 "
#810000
b10 &
1!
#813000
0!
#814000
b1000 '
b11 %
b1010001 "
#820000
b11 &
1!
#823000
0!
#824000
b1000 '
b11 %
b1010010 "
#830000
1!
#833000
0!
#834000
b1000 '
b100 %
b1010011 "
#840000
b100 &
1!
#843000
0!
#844000
b1000 '
b11 %
b1010100 "
#850000
b11 &
1!
#853000
0!
#854000
b1000 '
b100 %
b1010101 "
#860000
b100 &
1!
#863000
0!
#864000
b1000 '
b100 %
b1010110 "
#870000
1!
#873000
0!
#874000
b1000 '
b101 %
b1010111 "
#880000
b101 &
1!
#883000
0!
#884000
b1000 '
b11 %
b1011000 "
#890000
b11 &
1!
#893000
0!
#894000
b1000 '
b100 %
b1011001 "
#900000
b100 &
1!
#903000
0!
#904000
b1000 '
b100 %
b1011010 "
#910000
1!
#913000
0!
#914000
b1000 '
b101 %
b1011011 "
#920000
b101 &
1!
#923000
0!
#924000
b1000 '
b100 %
b1011100 "
#930000
b100 &
1!
#933000
0!
#934000
b1000 '
b101 %
b1011101 "
#940000
b101 &
1!
#943000
0!
#944000
b1000 '
b101 %
b1011110 "
#950000
1!
#953000
0!
#954000
b1000 '
b110 %
b1011111 "
#960000
b110 &
1!
#963000
0!
#964000
b1000 '
b10 %
b1100000 "
#970000
b10 &
1!
#973000
0!
#974000
b1000 '
b11 %
b1100001 "
#980000
b11 &
1!
#983000
0!
#984000
b1000 '
b11 %
b1100010 "
#990000
1!
#993000
0!
#994000
b1000 '
b100 %
b1100011 "
#1000000
b100 &
1!
#1003000
0!
#1004000
b1000 '
b11 %
b1100100 "
#1010000
b11 &
1!
#1013000
0!
#1014000
b1000 '
b100 %
b1100101 "
#1020000
b100 &
1!
#1023000
0!
#1024000
b1000 '
b100 %
b1100110 "
#1030000
1!
#1033000
0!
#1034000
b1000 '
b101 %
b1100111 "
#1040000
b101 &
1!
#1043000
0!
#1044000
b1000 '
b11 %
b1101000 "
#1050000
b11 &
1!
#1053000
0!
#1054000
b1000 '
b100 %
b1101001 "
#1060000
b100 &
1!
#1063000
0!
#1064000
b1000 '
b100 %
b1101010 "
#1070000
1!
#1073000
0!
#1074000
b1000 '
b101 %
b1101011 "
#1080000
b101 &
1!
#1083000
0!
#1084000
b1000 '
b100 %
b1101100 "
#1090000
b100 &
1!
#1093000
0!
#1094000
b1000 '
b101 %
b1101101 "
#1100000
b101 &
1!
#1103000
0!
#1104000
b1000 '
b101 %
b1101110 "
#1110000
1!
#1113000
0!
#1114000
b1000 '
b110 %
b1101111 "
#1120000
b110 &
1!
#1123000
0!
#1124000
b1000 '
b11 %
b1110000 "
#1130000
b11 &
1!
#1133000
0!
#1134000
b1000 '
b100 %
b1110001 "
#1140000
b100 &
1!
#1143000
0!
#1144000
b1000 '
b100 %
b1110010 "
#1150000
1!
#1153000
0!
#1154000
b1000 '
b101 %
b1110011 "
#1160000
b101 &
1!
#1163000
0!
#1164000
b1000 '
b100 %
b1110100 "
#1170000
b100 &
1!
#1173000
0!
#1174000
b1000 '
b101 %
b1110101 "
#1180000
b101 &
1!
#1183000
0!
#1184000
b1000 '
b101 %
b1110110 "
#1190000
1!
#1193000
0!
#1194000
b1000 '
b110 %
b1110111 "
#1200000
b110 &
1!
#1203000
0!
#1204000
b1000 '
b100 %
b1111000 "
#1210000
b100 &
1!
#1213000
0!
#1214000
b1000 '
b101 %
b1111001 "
#1220000
b101 &
1!
#1223000
0!
#1224000
b1000 '
b101 %
b1111010 "
#1230000
1!
#1233000
0!
#1234000
b1000 '
b110 %
b1111011 "
#1240000
b110 &
1!
#1243000
0!
#1244000
b1000 '
b101 %
b1111100 "
#1250000
b101 &
1!
#1253000
0!
#1254000
b1000 '
b110 %
b1111101 "
#1260000
b110 &
1!
#1263000
0!
#1264000
b1000 '
b110 %
b1111110 "
#1270000
1!
#1273000
0!
#1274000
b1000 '
b111 %
b1111111 "
#1280000
b111 &
1!
#1283000
0!
#1284000
b1000 '
b1 %
b10000000 "
#1290000
b1 &
1!
#1293000
0!
#1294000
b1000 '
b10 %
b10000001 "
#1300000
b10 &
1!
#1303000
0!
#1304000
b1000 '
b10 %
b10000010 "
#1310000
1!
#1313000
0!
#1314000
b1000 '
b11 %
b10000011 "
#1320000
b11 &
1!
#1323000
0!
#1324000
b1000 '
b10 %
b10000100 "
#1330000
b10 &
1!
#1333000
0!
#1334000
b1000 '
b11 %
b10000101 "
#1340000
b11 &
1!
#1343000
0!
#1344000
b1000 '
b11 %
b10000110 "
#1350000
1!
#1353000
0!
#1354000
b1000 '
b100 %
b10000111 "
#1360000
b100 &
1!
#1363000
0!
#1364000
b1000 '
b10 %
b10001000 "
#1370000
b10 &
1!
#1373000
0!
#1374000
b1000 '
b11 %
b10001001 "
#1380000
b11 &
1!
#1383000
0!
#1384000
b1000 '
b11 %
b10001010 "
#1390000
1!
#1393000
0!
#1394000
b1000 '
b100 %
b10001011 "
#1400000
b100 &
1!
#1403000
0!
#1404000
b1000 '
b11 %
b10001100 "
#1410000
b11 &
1!
#1413000
0!
#1414000
b1000 '
b100 %
b10001101 "
#1420000
b100 &
1!
#1423000
0!
#1424000
b1000 '
b100 %
b10001110 "
#1430000
1!
#1433000
0!
#1434000
b1000 '
b101 %
b10001111 "
#1440000
b101 &
1!
#1443000
0!
#1444000
b1000 '
b10 %
b10010000 "
#1450000
b10 &
1!
#1453000
0!
#1454000
b1000 '
b11 %
b10010001 "
#1460000
b11 &
1!
#1463000
0!
#1464000
b1000 '
b11 %
b10010010 "
#1470000
1!
#1473000
0!
#1474000
b1000 '
b100 %
b10010011 "
#1480000
b100 &
1!
#1483000
0!
#1484000
b1000 '
b11 %
b10010100 "
#1490000
b11 &
1!
#1493000
0!
#1494000
b1000 '
b100 %
b10010101 "
#1500000
b100 &
1!
#1503000
0!
#1504000
b1000 '
b100 %
b10010110 "
#1510000
1!
#1513000
0!
#1514000
b1000 '
b101 %
b10010111 "
#1520000
b101 &
1!
#1523000
0!
#1524000
b1000 '
b11 %
b10011000 "
#1530000
b11 &
1!
#1533000
0!
#1534000
b1000 '
b100 %
b10011001 "
#1540000
b100 &
1!
#1543000
0!
#1544000
b1000 '
b100 %
b10011010 "
#1550000
1!
#1553000
0!
#1554000
b1000 '
b101 %
b10011011 "
#1560000
b101 &
1!
#1563000
0!
#1564000
b1000 '
b100 %
b10011100 "
#1570000
b100 &
1!
#1573000
0!
#1574000
b1000 '
b101 %
b10011101 "
#1580000
b101 &
1!
#1583000
0!
#1584000
b1000 '
b101 %
b10011110 "
#1590000
1!
#1593000
0!
#1594000
b1000 '
b110 %
b10011111 "
#1600000
b110 &
1!
#1603000
0!
#1604000
b1000 '
b10 %
b10100000 "
#1610000
b10 &
1!
#1613000
0!
#1614000
b1000 '
b11 %
b10100001 "
#1620000
b11 &
1!
#1623000
0!
#1624000
b1000 '
b11 %
b10100010 "
#1630000
1!
#1633000
0!
#1634000
b1000 '
b100 %
b10100011 "
#1640000
b100 &
1!
#1643000
0!
#1644000
b1000 '
b11 %
b10100100 "
#1650000
b11 &
1!
#1653000
0!
#1654000
b1000 '
b100 %
b10100101 "
#1660000
b100 &
1!
#1663000
0!
#1664000
b1000 '
b100 %
b10100110 "
#1670000
1!
#1673000
0!
#1674000
b1000 '
b101 %
b10100111 "
#1680000
b101 &
1!
#1683000
0!
#1684000
b1000 '
b11 %
b10101000 "
#1690000
b11 &
1!
#1693000
0!
#1694000
b1000 '
b100 %
b10101001 "
#1700000
b100 &
1!
#1703000
0!
#1704000
b1000 '
b100 %
b10101010 "
#1710000
1!
#1713000
0!
#1714000
b1000 '
b101 %
b10101011 "
#1720000
b101 &
1!
#1723000
0!
#1724000
b1000 '
b100 %
b10101100 "
#1730000
b100 &
1!
#1733000
0!
#1734000
b1000 '
b101 %
b10101101 "
#1740000
b101 &
1!
#1743000
0!
#1744000
b1000 '
b101 %
b10101110 "
#1750000
1!
#1753000
0!
#1754000
b1000 '
b110 %
b10101111 "
#1760000
b110 &
1!
#1763000
0!
#1764000
b1000 '
b11 %
b10110000 "
#1770000
b11 &
1!
#1773000
0!
#1774000
b1000 '
b100 %
b10110001 "
#1780000
b100 &
1!
#1783000
0!
#1784000
b1000 '
b100 %
b10110010 "
#1790000
1!
#1793000
0!
#1794000
b1000 '
b101 %
b10110011 "
#1800000
b101 &
1!
#1803000
0!
#1804000
b1000 '
b100 %
b10110100 "
#1810000
b100 &
1!
#1813000
0!
#1814000
b1000 '
b101 %
b10110101 "
#1820000
b101 &
1!
#1823000
0!
#1824000
b1000 '
b101 %
b10110110 "
#1830000
1!
#1833000
0!
#1834000
b1000 '
b110 %
b10110111 "
#1840000
b110 &
1!
#1843000
0!
#1844000
b1000 '
b100 %
b10111000 "
#1850000
b100 &
1!
#1853000
0!
#1854000
b1000 '
b101 %
b10111001 "
#1860000
b101 &
1!
#1863000
0!
#1864000
b1000 '
b101 %
b10111010 "
#1870000
1!
#1873000
0!
#1874000
b1000 '
b110 %
b10111011 "
#1880000
b110 &
1!
#1883000
0!
#1884000
b1000 '
b101 %
b10111100 "
#1890000
b101 &
1!
#1893000
0!
#1894000
b1000 '
b110 %
b10111101 "
#1900000
b110 &
1!
#1903000
0!
#1904000
b1000 '
b110 %
b10111110 "
#1910000
1!
#1913000
0!
#1914000
b1000 '
b111 %
b10111111 "
#1920000
b111 &
1!
#1923000
0!
#1924000
b1000 '
b10 %
b11000000 "
#1930000
b10 &
1!
#1933000
0!
#1934000
b1000 '
b11 %
b11000001 "
#1940000
b11 &
1!
#1943000
0!
#1944000
b1000 '
b11 %
b11000010 "
#1950000
1!
#1953000
0!
#1954000
b1000 '
b100 %
b11000011 "
#1960000
b100 &
1!
#1963000
0!
#1964000
b1000 '
b11 %
b11000100 "
#1970000
b11 &
1!
#1973000
0!
#1974000
b1000 '
b100 %
b11000101 "
#1980000
b100 &
1!
#1983000
0!
#1984000
b1000 '
b100 %
b11000110 "
#1990000
1!
#1993000
0!
#1994000
b1000 '
b101 %
b11000111 "
#2000000
b101 &
1!
#2003000
0!
#2004000
b1000 '
b11 %
b11001000 "
#2010000
b11 &
1!
#2013000
0!
#2014000
b1000 '
b100 %
b11001001 "
#2020000
b100 &
1!
#2023000
0!
#2024000
b1000 '
b100 %
b11001010 "
#2030000
1!
#2033000
0!
#2034000
b1000 '
b101 %
b11001011 "
#2040000
b101 &
1!
#2043000
0!
#2044000
b1000 '
b100 %
b11001100 "
#2050000
b100 &
1!
#2053000
0!
#2054000
b1000 '
b101 %
b11001101 "
#2060000
b101 &
1!
#2063000
0!
#2064000
b1000 '
b101 %
b11001110 "
#2070000
1!
#2073000
0!
#2074000
b1000 '
b110 %
b11001111 "
#2080000
b110 &
1!
#2083000
0!
#2084000
b1000 '
b11 %
b11010000 "
#2090000
b11 &
1!
#2093000
0!
#2094000
b1000 '
b100 %
b11010001 "
#2100000
b100 &
1!
#2103000
0!
#2104000
b1000 '
b100 %
b11010010 "
#2110000
1!
#2113000
0!
#2114000
b1000 '
b101 %
b11010011 "
#2120000
b101 &
1!
#2123000
0!
#2124000
b1000 '
b100 %
b11010100 "
#2130000
b100 &
1!
#2133000
0!
#2134000
b1000 '
b101 %
b11010101 "
#2140000
b101 &
1!
#2143000
0!
#2144000
b1000 '
b101 %
b11010110 "
#2150000
1!
#2153000
0!
#2154000
b1000 '
b110 %
b11010111 "
#2160000
b110 &
1!
#2163000
0!
#2164000
b1000 '
b100 %
b11011000 "
#2170000
b100 &
1!
#2173000
0!
#2174000
b1000 '
b101 %
b11011001 "
#2180000
b101 &
1!
#2183000
0!
#2184000
b1000 '
b101 %
b11011010 "
#2190000
1!
#2193000
0!
#2194000
b1000 '
b110 %
b11011011 "
#2200000
b110 &
1!
#2203000
0!
#2204000
b1000 '
b101 %
b11011100 "
#2210000
b101 &
1!
#2213000
0!
#2214000
b1000 '
b110 %
b11011101 "
#2220000
b110 &
1!
#2223000
0!
#2224000
b1000 '
b110 %
b11011110 "
#2230000
1!
#2233000
0!
#2234000
b1000 '
b111 %
b11011111 "
#2240000
b111 &
1!
#2243000
0!
#2244000
b1000 '
b11 %
b11100000 "
#2250000
b11 &
1!
#2253000
0!
#2254000
b1000 '
b100 %
b11100001 "
#2260000
b100 &
1!
#2263000
0!
#2264000
b1000 '
b100 %
b11100010 "
#2270000
1!
#2273000
0!
#2274000
b1000 '
b101 %
b11100011 "
#2280000
b101 &
1!
#2283000
0!
#2284000
b1000 '
b100 %
b11100100 "
#2290000
b100 &
1!
#2293000
0!
#2294000
b1000 '
b101 %
b11100101 "
#2300000
b101 &
1!
#2303000
0!
#2304000
b1000 '
b101 %
b11100110 "
#2310000
1!
#2313000
0!
#2314000
b1000 '
b110 %
b11100111 "
#2320000
b110 &
1!
#2323000
0!
#2324000
b1000 '
b100 %
b11101000 "
#2330000
b100 &
1!
#2333000
0!
#2334000
b1000 '
b101 %
b11101001 "
#2340000
b101 &
1!
#2343000
0!
#2344000
b1000 '
b101 %
b11101010 "
#2350000
1!
#2353000
0!
#2354000
b1000 '
b110 %
b11101011 "
#2360000
b110 &
1!
#2363000
0!
#2364000
b1000 '
b101 %
b11101100 "
#2370000
b101 &
1!
#2373000
0!
#2374000
b1000 '
b110 %
b11101101 "
#2380000
b110 &
1!
#2383000
0!
#2384000
b1000 '
b110 %
b11101110 "
#2390000
1!
#2393000
0!
#2394000
b1000 '
b111 %
b11101111 "
#2400000
b111 &
1!
#2403000
0!
#2404000
b1000 '
b100 %
b11110000 "
#2410000
b100 &
1!
#2413000
0!
#2414000
b1000 '
b101 %
b11110001 "
#2420000
b101 &
1!
#2423000
0!
#2424000
b1000 '
b101 %
b11110010 "
#2430000
1!
#2433000
0!
#2434000
b1000 '
b110 %
b11110011 "
#2440000
b110 &
1!
#2443000
0!
#2444000
b1000 '
b101 %
b11110100 "
#2450000
b101 &
1!
#2453000
0!
#2454000
b1000 '
b110 %
b11110101 "
#2460000
b110 &
1!
#2463000
0!
#2464000
b1000 '
b110 %
b11110110 "
#2470000
1!
#2473000
0!
#2474000
b1000 '
b111 %
b11110111 "
#2480000
b111 &
1!
#2483000
0!
#2484000
b1000 '
b101 %
b11111000 "
#2490000
b101 &
1!
#2493000
0!
#2494000
b1000 '
b110 %
b11111001 "
#2500000
b110 &
1!
#2503000
0!
#2504000
b1000 '
b110 %
b11111010 "
#2510000
1!
#2513000
0!
#2514000
b1000 '
b111 %
b11111011 "
#2520000
b111 &
1!
#2523000
0!
#2524000
b1000 '
b110 %
b11111100 "
#2530000
b110 &
1!
#2533000
0!
#2534000
b1000 '
b111 %
b11111101 "
#2540000
b111 &
1!
#2543000
0!
#2544000
b1000 '
b111 %
b11111110 "
#2550000
1!
#2553000
0!
#2554000
b1000 '
b1000 %
b11111111 "
#2560000
b1000 &
1!
